<?xml version="1.0" encoding="UTF-8"?>
<!DOCTYPE svg PUBLIC "-//W3C//DTD SVG 1.1//EN" "http://www.w3.org/Graphics/SVG/1.1/DTD/svg11.dtd">
<!-- Creator: CorelDRAW X8 -->
<svg xmlns="http://www.w3.org/2000/svg" xml:space="preserve" width="72px" height="72px" version="1.1" style="shape-rendering:geometricPrecision; text-rendering:geometricPrecision; image-rendering:optimizeQuality; fill-rule:evenodd; clip-rule:evenodd"
viewBox="0 0 72 72"
 xmlns:xlink="http://www.w3.org/1999/xlink">
 <defs>
  <style type="text/css">
   <![CDATA[
    .fil1 {fill:black}
    .fil0 {fill:#663333}
    .fil3 {fill:url(#id12);fill-rule:nonzero}
    .fil2 {fill:url(#id13);fill-rule:nonzero}
   ]]>
  </style>
   <mask id="id0">
  <linearGradient id="id1" gradientUnits="userSpaceOnUse" x1="353" y1="-58" x2="480" y2="3.99997">
   <stop offset="0" style="stop-opacity:1; stop-color:white"/>
   <stop offset="1" style="stop-opacity:0; stop-color:white"/>
  </linearGradient>
    <rect style="fill:url(#id1)" x="339" y="-86" width="73.0001" height="73.0001"/>
   </mask>
   <mask id="id2">
  <linearGradient id="id3" gradientUnits="userSpaceOnUse" x1="353" y1="-58" x2="480" y2="3.99997">
   <stop offset="0" style="stop-opacity:1; stop-color:white"/>
   <stop offset="1" style="stop-opacity:0; stop-color:white"/>
  </linearGradient>
    <rect style="fill:url(#id3)" x="342" y="-83" width="66.1221" height="66.1221"/>
   </mask>
   <mask id="id4">
  <linearGradient id="id5" gradientUnits="userSpaceOnUse" x1="353" y1="-58" x2="480" y2="3.99997">
   <stop offset="0" style="stop-opacity:1; stop-color:white"/>
   <stop offset="1" style="stop-opacity:0; stop-color:white"/>
  </linearGradient>
    <rect style="fill:url(#id5)" x="354" y="-66" width="43.2675" height="33.7504"/>
   </mask>
    <mask id="id6">
  <linearGradient id="id7" gradientUnits="userSpaceOnUse" x1="13.5" y1="27.5" x2="140.5" y2="89.5">
   <stop offset="0" style="stop-opacity:1; stop-color:white"/>
   <stop offset="1" style="stop-opacity:0; stop-color:white"/>
  </linearGradient>
     <rect style="fill:url(#id7)" x="-1" y="-1" width="73.0001" height="73.0001"/>
    </mask>
    <mask id="id8">
  <linearGradient id="id9" gradientUnits="userSpaceOnUse" x1="13.5" y1="27.5" x2="140.5" y2="89.5">
   <stop offset="0" style="stop-opacity:1; stop-color:white"/>
   <stop offset="1" style="stop-opacity:0; stop-color:white"/>
  </linearGradient>
     <rect style="fill:url(#id9)" x="3" y="3" width="66.1221" height="66.1221"/>
    </mask>
    <mask id="id10">
  <linearGradient id="id11" gradientUnits="userSpaceOnUse" x1="13.5" y1="27.5" x2="140.5" y2="89.5">
   <stop offset="0" style="stop-opacity:1; stop-color:white"/>
   <stop offset="1" style="stop-opacity:0; stop-color:white"/>
  </linearGradient>
     <rect style="fill:url(#id11)" x="14" y="19" width="43.2675" height="33.7504"/>
    </mask>
  <linearGradient id="id12" gradientUnits="userSpaceOnUse" x1="14.3662" y1="36" x2="57.6336" y2="36">
   <stop offset="0" style="stop-opacity:1; stop-color:#045F80"/>
   <stop offset="1" style="stop-opacity:1; stop-color:white"/>
  </linearGradient>
  <linearGradient id="id13" gradientUnits="userSpaceOnUse" xlink:href="#id12" x1="353.866" y1="-49.5" x2="397.133" y2="-49.5">
  </linearGradient>
 </defs>
 <g id="Warstwa_x0020_1">
  <metadata id="CorelCorpID_0Corel-Layer"/>
  <path class="fil0" style="mask:url(#id0)" d="M350 -86l51 0c6,0 10,5 10,11l0 51c0,6 -4,10 -10,10l-51 0c-6,0 -11,-4 -11,-10l0 -51c0,-6 5,-11 11,-11z"/>
  <path class="fil1" style="mask:url(#id2)" d="M352 -82l47 0c5,0 9,4 9,9l0 47c0,5 -4,9 -9,9l-47 0c-5,0 -9,-4 -9,-9l0 -47c0,-5 4,-9 9,-9z"/>
  <path class="fil2" style="mask:url(#id4)" d="M376 -66l-8 32 -6 0 -8 -32 7 0c0,0 0,1 0,1l4 19 4 -19c0,0 0,-1 0,-1l7 0zm21 24c0,3 -1,5 -3,7 -1,2 -4,2 -6,2 -6,0 -9,-3 -9,-10l7 0c-1,0 -1,1 -1,1 0,1 1,2 1,2 0,1 1,2 2,2 1,0 2,-1 2,-4 0,-1 -1,-4 -3,-6 -4,-2 -5,-4 -5,-4 -2,-2 -3,-4 -3,-6 0,-2 1,-4 2,-6 2,-2 4,-2 7,-2 5,0 8,3 9,9l-7 0c0,-1 0,-1 0,-1 0,-1 0,-1 0,-2 -1,-1 -1,-1 -2,-1 -1,0 -2,1 -2,2 0,2 0,3 2,4 0,0 1,1 4,3 3,3 5,7 5,10z"/>
  <g id="_2084578072928">
   <path class="fil0" style="mask:url(#id6)" d="M10 0l52 0c5,0 10,5 10,10l0 52c0,5 -5,10 -10,10l-52 0c-5,0 -10,-5 -10,-10l0 -52c0,-5 5,-10 10,-10z"/>
   <path class="fil1" style="mask:url(#id8)" d="M13 3l46 0c5,0 10,5 10,10l0 46c0,5 -5,10 -10,10l-46 0c-5,0 -10,-5 -10,-10l0 -46c0,-5 5,-10 10,-10z"/>
   <path class="fil3" style="mask:url(#id10)" d="M36 19l-8 32 -6 0 -8 -32 7 0c0,1 0,1 0,2l4 18 4 -18c0,-1 0,-1 0,-2l7 0zm22 25c0,3 -1,5 -3,6 -2,2 -4,3 -7,3 -6,0 -9,-4 -9,-11l7 0c0,1 0,1 0,2 0,0 0,1 0,2 1,1 1,1 2,1 2,0 3,-1 3,-3 0,-2 -1,-4 -4,-6 -3,-3 -5,-4 -5,-5 -2,-1 -2,-3 -2,-5 0,-3 0,-5 2,-6 1,-2 4,-3 6,-3 6,0 9,3 9,9l-7 0c1,0 1,0 1,0 0,-1 -1,-2 -1,-2 0,-1 -1,-1 -2,-1 -1,0 -2,0 -2,2 0,1 1,3 2,4 1,0 2,1 4,3 4,3 6,6 6,10z"/>
  </g>
 </g>
</svg>
